<?xml version="1.0" encoding="UTF-8" standalone="no"?>
<svg
   sodipodi:docname="TitanMail.svg"
   inkscape:version="1.2 (dc2aedaf03, 2022-05-15)"
   id="svg8"
   version="1.1"
   viewBox="0 0 12.7 12.7"
   height="48"
   width="48"
   xmlns:inkscape="http://www.inkscape.org/namespaces/inkscape"
   xmlns:sodipodi="http://sodipodi.sourceforge.net/DTD/sodipodi-0.dtd"
   xmlns="http://www.w3.org/2000/svg"
   xmlns:svg="http://www.w3.org/2000/svg"
   xmlns:rdf="http://www.w3.org/1999/02/22-rdf-syntax-ns#"
   xmlns:cc="http://creativecommons.org/ns#"
   xmlns:dc="http://purl.org/dc/elements/1.1/">
  <defs
     id="defs2" />
  <sodipodi:namedview
     units="px"
     inkscape:document-rotation="0"
     inkscape:window-maximized="1"
     inkscape:window-y="0"
     inkscape:window-x="0"
     inkscape:window-height="1015"
     inkscape:window-width="1920"
     inkscape:snap-global="false"
     showgrid="false"
     inkscape:current-layer="layer1"
     inkscape:document-units="mm"
     inkscape:cy="43.123863"
     inkscape:cx="16.434827"
     inkscape:zoom="7.1190283"
     inkscape:pageshadow="2"
     inkscape:pageopacity="0.0"
     borderopacity="1.0"
     bordercolor="#666666"
     pagecolor="#ffffff"
     id="base"
     inkscape:showpageshadow="2"
     inkscape:pagecheckerboard="0"
     inkscape:deskcolor="#d1d1d1" />
  <metadata
     id="metadata5">
    <rdf:RDF>
      <cc:Work
         rdf:about="">
        <dc:format>image/svg+xml</dc:format>
        <dc:type
           rdf:resource="http://purl.org/dc/dcmitype/StillImage" />
        <dc:title />
      </cc:Work>
    </rdf:RDF>
  </metadata>
  <g
     id="layer1"
     inkscape:groupmode="layer"
     inkscape:label="Layer 1">
    <g
       id="g301"
       transform="matrix(0.8580467,-0.3434119,0.3434119,0.8580467,-1.7944572,1.8533148)">
      <rect
         style="fill:#ffffff;fill-opacity:1;fill-rule:evenodd;stroke:#000000;stroke-width:0.264583;stroke-opacity:1"
         id="rect64"
         width="10.457799"
         height="7.2530522"
         x="1.084627"
         y="2.6659315"
         ry="0.92078334" />
      <path
         style="fill:none;stroke:#000000;stroke-width:0.264583px;stroke-linecap:butt;stroke-linejoin:miter;stroke-opacity:1"
         d="m 1.0460563,3.7004539 3.8778991,3.8401049 c 0.918639,0.8348976 2.197575,0.6132448 2.92946,0 L 11.53402,3.8757236"
         id="path1035"
         sodipodi:nodetypes="cccc" />
      <path
         style="fill:none;stroke:#000000;stroke-width:0.264583px;stroke-linecap:butt;stroke-linejoin:miter;stroke-opacity:1"
         d="M 3.8922639,6.5237714 1.1183602,9.2280213"
         id="path1393"
         sodipodi:nodetypes="cc" />
      <path
         style="fill:none;stroke:#000000;stroke-width:0.264583px;stroke-linecap:butt;stroke-linejoin:miter;stroke-opacity:1"
         d="M 8.7181024,6.6542192 11.42432,9.3078412"
         id="path1395"
         sodipodi:nodetypes="cc" />
    </g>
    <g
       id="g314"
       transform="matrix(0.88451405,0,0,0.88451405,8.0851922,1.7038342)">
      <ellipse
         id="path3713"
         cx="0.53009832"
         cy="6.9770913"
         rx="4.489038"
         ry="4.4964461"
         style="fill:#646464;fill-opacity:1;stroke-width:0.0186447" />
      <ellipse
         style="fill:#423014;fill-opacity:1;stroke-width:0.0158189"
         ry="3.8149419"
         rx="3.8086567"
         cy="6.9770913"
         cx="0.53009832"
         id="ellipse4520" />
      <ellipse
         id="ellipse4522"
         cx="0.53009832"
         cy="6.9770913"
         rx="0.98359489"
         ry="0.98521805"
         style="fill:#595959;fill-opacity:1;stroke-width:0.00408526" />
    </g>
    <g
       id="g321"
       transform="matrix(-1.0124786,0,0,-1.0124786,8.9298736,13.39968)"
       inkscape:transform-center-x="-0.056954552"
       inkscape:transform-center-y="0.050497196">
      <g
         id="g4547"
         style="stroke:none;stroke-opacity:1"
         transform="matrix(0.07046832,0,0,0.07046832,-2.092211,-0.15154025)">
        <path
           inkscape:connector-curvature="0"
           id="path4530"
           d="M 2.102407,19.692536 -8.830107,34.829864 V 132.59178 H 12.404201 V 36.091307 Z"
           style="fill:#c8c8c8;fill-opacity:1;stroke:none;stroke-width:0.264583px;stroke-linecap:butt;stroke-linejoin:miter;stroke-opacity:1" />
        <rect
           y="138.26828"
           x="-4.4150543"
           height="37.002361"
           width="10.932515"
           id="rect4534"
           style="fill:#724d3b;fill-opacity:1;stroke:none;stroke-width:0.264583;stroke-opacity:1" />
        <rect
           y="130.48938"
           x="-15.768051"
           height="8.8301086"
           width="33.00779"
           id="rect4532"
           style="fill:#ada600;fill-opacity:1;stroke:none;stroke-width:0.264583;stroke-opacity:1" />
        <rect
           y="170.64534"
           x="-8.6198683"
           height="8.1993866"
           width="18.921661"
           id="rect4541"
           style="fill:#ada600;fill-opacity:1;stroke:none;stroke-width:0.264583;stroke-opacity:1" />
      </g>
    </g>
  </g>
</svg>
